{
  "1": {
    "src": "arnaud_g.png",
    "poste":"DIRECTEUR GÉNÉRAL ADJOINT",
    "size": "col-md-12 col-lg-4",
    "name": "Arnaud Gervais Delafond"
  },
  "2": {
    "src": "mike.png",
    "poste":"DIRECTEUR COMMERCIAL",
    "size": "col-md-12 col-lg-4",
    "name": "Mike PINEAU"
  },
  "3": {
    "src": "arnaud_w.png",
    "poste":"DIRECTEUR TECHNIQUE",
    "size": "col-md-12 col-lg-4",
    "name": "Arnaud weber"
  },
  "4": {
    "src": "stephane.png",
    "poste":"DIRECTEUR GÉNÉRAL previsite",
    "size": "col-md-12 col-lg-4",
    "name": "stéphane caron"
  },
  "5": {
    "src": "mmahi.png",
    "poste":"DIRECTEUR opérationnel",
    "size": "col-md-12 col-lg-4",
    "name": "mohammed mahi"
  },
  "6": {
    "src": "marie.png",
    "poste":"DIRECTEUR délégué À la formation et À l'annimation",
    "size": "col-md-12 col-lg-4",
    "name": "philippe garcia"
  }
}
